%YAML 1.1
%TAG !u! tag:unity3d.com,2011:
--- !u!74 &7400000
AnimationClip:
  m_ObjectHideFlags: 0
  m_CorrespondingSourceObject: {fileID: 0}
  m_PrefabInstance: {fileID: 0}
  m_PrefabAsset: {fileID: 0}
  m_Name: Idle_Villager_4
  serializedVersion: 6
  m_Legacy: 0
  m_Compressed: 0
  m_UseHighQualityCurve: 1
  m_RotationCurves: []
  m_CompressedRotationCurves: []
  m_EulerCurves: []
  m_PositionCurves: []
  m_ScaleCurves: []
  m_FloatCurves: []
  m_PPtrCurves:
  - curve:
    - time: 0
      value: {fileID: 21300000, guid: 3db50697a8807d245b4d8d0665611a6b, type: 3}
    - time: 0.1
      value: {fileID: 21300000, guid: 191c3380bdb0f5a479a424a5332fef55, type: 3}
    - time: 0.18333334
      value: {fileID: 21300000, guid: 548f67a41af30d944ad3154e0ae7af0d, type: 3}
    - time: 0.28333333
      value: {fileID: 21300000, guid: 458da3e5d70aa014b801da813f93d500, type: 3}
    - time: 0.38333333
      value: {fileID: 21300000, guid: 5cec8a03299004347abb47186e84dffc, type: 3}
    - time: 0.48333332
      value: {fileID: 21300000, guid: f5582e4e142572047b25c91e8d630413, type: 3}
    - time: 0.56666666
      value: {fileID: 21300000, guid: 969e4f66652167443827524e1013adf7, type: 3}
    - time: 0.6666667
      value: {fileID: 21300000, guid: 6f3a0f64ec5c00147a3e17ce7628b51c, type: 3}
    attribute: m_Sprite
    path: 
    classID: 212
    script: {fileID: 0}
  m_SampleRate: 60
  m_WrapMode: 0
  m_Bounds:
    m_Center: {x: 0, y: 0, z: 0}
    m_Extent: {x: 0, y: 0, z: 0}
  m_ClipBindingConstant:
    genericBindings:
    - serializedVersion: 2
      path: 0
      attribute: 0
      script: {fileID: 0}
      typeID: 212
      customType: 23
      isPPtrCurve: 1
    pptrCurveMapping:
    - {fileID: 21300000, guid: 3db50697a8807d245b4d8d0665611a6b, type: 3}
    - {fileID: 21300000, guid: 191c3380bdb0f5a479a424a5332fef55, type: 3}
    - {fileID: 21300000, guid: 548f67a41af30d944ad3154e0ae7af0d, type: 3}
    - {fileID: 21300000, guid: 458da3e5d70aa014b801da813f93d500, type: 3}
    - {fileID: 21300000, guid: 5cec8a03299004347abb47186e84dffc, type: 3}
    - {fileID: 21300000, guid: f5582e4e142572047b25c91e8d630413, type: 3}
    - {fileID: 21300000, guid: 969e4f66652167443827524e1013adf7, type: 3}
    - {fileID: 21300000, guid: 6f3a0f64ec5c00147a3e17ce7628b51c, type: 3}
  m_AnimationClipSettings:
    serializedVersion: 2
    m_AdditiveReferencePoseClip: {fileID: 0}
    m_AdditiveReferencePoseTime: 0
    m_StartTime: 0
    m_StopTime: 0.68333334
    m_OrientationOffsetY: 0
    m_Level: 0
    m_CycleOffset: 0
    m_HasAdditiveReferencePose: 0
    m_LoopTime: 1
    m_LoopBlend: 0
    m_LoopBlendOrientation: 0
    m_LoopBlendPositionY: 0
    m_LoopBlendPositionXZ: 0
    m_KeepOriginalOrientation: 0
    m_KeepOriginalPositionY: 1
    m_KeepOriginalPositionXZ: 0
    m_HeightFromFeet: 0
    m_Mirror: 0
  m_EditorCurves: []
  m_EulerEditorCurves: []
  m_HasGenericRootTransform: 0
  m_HasMotionFloatCurves: 0
  m_Events: []
