%YAML 1.1
%TAG !u! tag:unity3d.com,2011:
--- !u!74 &7400000
AnimationClip:
  m_ObjectHideFlags: 0
  m_CorrespondingSourceObject: {fileID: 0}
  m_PrefabInstance: {fileID: 0}
  m_PrefabAsset: {fileID: 0}
  m_Name: Walk_Villager_4
  serializedVersion: 6
  m_Legacy: 0
  m_Compressed: 0
  m_UseHighQualityCurve: 1
  m_RotationCurves: []
  m_CompressedRotationCurves: []
  m_EulerCurves: []
  m_PositionCurves: []
  m_ScaleCurves: []
  m_FloatCurves: []
  m_PPtrCurves:
  - curve:
    - time: 0
      value: {fileID: 21300000, guid: 965a3f892f5e4a74ab585eb966567a51, type: 3}
    - time: 0.06666667
      value: {fileID: 21300000, guid: fe00e9fa34218a644ac7bc4f99e48a1d, type: 3}
    - time: 0.11666667
      value: {fileID: 21300000, guid: cc72b487d6bbf4f438c79b38a86a4396, type: 3}
    - time: 0.18333334
      value: {fileID: 21300000, guid: 9d30ed2a09f9df144ab07bceef5a34f4, type: 3}
    - time: 0.25
      value: {fileID: 21300000, guid: 0f9c2822ee97c5647b75dbdec1e52333, type: 3}
    - time: 0.3
      value: {fileID: 21300000, guid: d70c378c1364dfb45a2314bb6d9e9e22, type: 3}
    - time: 0.36666667
      value: {fileID: 21300000, guid: 9197b6d432c2e944bb7d2c663cc7009d, type: 3}
    - time: 0.41666666
      value: {fileID: 21300000, guid: 67c0f5120d4494f44accaa093dd2684b, type: 3}
    - time: 0.48333332
      value: {fileID: 21300000, guid: c3b0cb4ce9af8cd4380360aa8a3c81cb, type: 3}
    - time: 0.55
      value: {fileID: 21300000, guid: 6cb758487b11cc64d892c55ffdf23f81, type: 3}
    - time: 0.6
      value: {fileID: 21300000, guid: d9af220187923ef4fa4536169a04dd91, type: 3}
    - time: 0.6666667
      value: {fileID: 21300000, guid: a3d908cb0baa064409254f30d3d2373e, type: 3}
    attribute: m_Sprite
    path: 
    classID: 212
    script: {fileID: 0}
  m_SampleRate: 60
  m_WrapMode: 0
  m_Bounds:
    m_Center: {x: 0, y: 0, z: 0}
    m_Extent: {x: 0, y: 0, z: 0}
  m_ClipBindingConstant:
    genericBindings:
    - serializedVersion: 2
      path: 0
      attribute: 0
      script: {fileID: 0}
      typeID: 212
      customType: 23
      isPPtrCurve: 1
    pptrCurveMapping:
    - {fileID: 21300000, guid: 965a3f892f5e4a74ab585eb966567a51, type: 3}
    - {fileID: 21300000, guid: fe00e9fa34218a644ac7bc4f99e48a1d, type: 3}
    - {fileID: 21300000, guid: cc72b487d6bbf4f438c79b38a86a4396, type: 3}
    - {fileID: 21300000, guid: 9d30ed2a09f9df144ab07bceef5a34f4, type: 3}
    - {fileID: 21300000, guid: 0f9c2822ee97c5647b75dbdec1e52333, type: 3}
    - {fileID: 21300000, guid: d70c378c1364dfb45a2314bb6d9e9e22, type: 3}
    - {fileID: 21300000, guid: 9197b6d432c2e944bb7d2c663cc7009d, type: 3}
    - {fileID: 21300000, guid: 67c0f5120d4494f44accaa093dd2684b, type: 3}
    - {fileID: 21300000, guid: c3b0cb4ce9af8cd4380360aa8a3c81cb, type: 3}
    - {fileID: 21300000, guid: 6cb758487b11cc64d892c55ffdf23f81, type: 3}
    - {fileID: 21300000, guid: d9af220187923ef4fa4536169a04dd91, type: 3}
    - {fileID: 21300000, guid: a3d908cb0baa064409254f30d3d2373e, type: 3}
  m_AnimationClipSettings:
    serializedVersion: 2
    m_AdditiveReferencePoseClip: {fileID: 0}
    m_AdditiveReferencePoseTime: 0
    m_StartTime: 0
    m_StopTime: 0.68333334
    m_OrientationOffsetY: 0
    m_Level: 0
    m_CycleOffset: 0
    m_HasAdditiveReferencePose: 0
    m_LoopTime: 1
    m_LoopBlend: 0
    m_LoopBlendOrientation: 0
    m_LoopBlendPositionY: 0
    m_LoopBlendPositionXZ: 0
    m_KeepOriginalOrientation: 0
    m_KeepOriginalPositionY: 1
    m_KeepOriginalPositionXZ: 0
    m_HeightFromFeet: 0
    m_Mirror: 0
  m_EditorCurves: []
  m_EulerEditorCurves: []
  m_HasGenericRootTransform: 0
  m_HasMotionFloatCurves: 0
  m_Events: []
