%YAML 1.1
%TAG !u! tag:unity3d.com,2011:
--- !u!74 &7400000
AnimationClip:
  m_ObjectHideFlags: 0
  m_CorrespondingSourceObject: {fileID: 0}
  m_PrefabInstance: {fileID: 0}
  m_PrefabAsset: {fileID: 0}
  m_Name: riseFromDeath
  serializedVersion: 6
  m_Legacy: 0
  m_Compressed: 0
  m_UseHighQualityCurve: 1
  m_RotationCurves: []
  m_CompressedRotationCurves: []
  m_EulerCurves: []
  m_PositionCurves: []
  m_ScaleCurves: []
  m_FloatCurves: []
  m_PPtrCurves:
  - curve:
    - time: 0
      value: {fileID: 21300000, guid: 1edddeab417b0a243b3e56f5872d5e09, type: 3}
    - time: 0.06666667
      value: {fileID: 21300000, guid: 20bafc5f3f373144483fb0cfc272fabf, type: 3}
    - time: 0.15
      value: {fileID: 21300000, guid: f0b233af44e93ca40a3898e926d5e7a8, type: 3}
    - time: 0.21666667
      value: {fileID: 21300000, guid: 65a96b2475ddfe941b2497251e1adcff, type: 3}
    - time: 0.28333333
      value: {fileID: 21300000, guid: 3a26cc6ea5682004799f8119c1e4785e, type: 3}
    - time: 0.35
      value: {fileID: 21300000, guid: 23c623f073a94da469f756018b936f8f, type: 3}
    - time: 0.43333334
      value: {fileID: 21300000, guid: cc5a7d7ac3455324ab03a6fabeeb67c2, type: 3}
    - time: 0.5
      value: {fileID: 21300000, guid: 967f0097f418e6a47b8832ab520749cf, type: 3}
    attribute: m_Sprite
    path: 
    classID: 212
    script: {fileID: 0}
  m_SampleRate: 60
  m_WrapMode: 0
  m_Bounds:
    m_Center: {x: 0, y: 0, z: 0}
    m_Extent: {x: 0, y: 0, z: 0}
  m_ClipBindingConstant:
    genericBindings:
    - serializedVersion: 2
      path: 0
      attribute: 0
      script: {fileID: 0}
      typeID: 212
      customType: 23
      isPPtrCurve: 1
    pptrCurveMapping:
    - {fileID: 21300000, guid: 1edddeab417b0a243b3e56f5872d5e09, type: 3}
    - {fileID: 21300000, guid: 20bafc5f3f373144483fb0cfc272fabf, type: 3}
    - {fileID: 21300000, guid: f0b233af44e93ca40a3898e926d5e7a8, type: 3}
    - {fileID: 21300000, guid: 65a96b2475ddfe941b2497251e1adcff, type: 3}
    - {fileID: 21300000, guid: 3a26cc6ea5682004799f8119c1e4785e, type: 3}
    - {fileID: 21300000, guid: 23c623f073a94da469f756018b936f8f, type: 3}
    - {fileID: 21300000, guid: cc5a7d7ac3455324ab03a6fabeeb67c2, type: 3}
    - {fileID: 21300000, guid: 967f0097f418e6a47b8832ab520749cf, type: 3}
  m_AnimationClipSettings:
    serializedVersion: 2
    m_AdditiveReferencePoseClip: {fileID: 0}
    m_AdditiveReferencePoseTime: 0
    m_StartTime: 0
    m_StopTime: 0.51666665
    m_OrientationOffsetY: 0
    m_Level: 0
    m_CycleOffset: 0
    m_HasAdditiveReferencePose: 0
    m_LoopTime: 1
    m_LoopBlend: 0
    m_LoopBlendOrientation: 0
    m_LoopBlendPositionY: 0
    m_LoopBlendPositionXZ: 0
    m_KeepOriginalOrientation: 0
    m_KeepOriginalPositionY: 1
    m_KeepOriginalPositionXZ: 0
    m_HeightFromFeet: 0
    m_Mirror: 0
  m_EditorCurves: []
  m_EulerEditorCurves: []
  m_HasGenericRootTransform: 0
  m_HasMotionFloatCurves: 0
  m_Events: []
