%YAML 1.1
%TAG !u! tag:unity3d.com,2011:
--- !u!74 &7400000
AnimationClip:
  m_ObjectHideFlags: 0
  m_CorrespondingSourceObject: {fileID: 0}
  m_PrefabInstance: {fileID: 0}
  m_PrefabAsset: {fileID: 0}
  m_Name: Walk
  serializedVersion: 6
  m_Legacy: 0
  m_Compressed: 0
  m_UseHighQualityCurve: 1
  m_RotationCurves: []
  m_CompressedRotationCurves: []
  m_EulerCurves: []
  m_PositionCurves: []
  m_ScaleCurves: []
  m_FloatCurves: []
  m_PPtrCurves:
  - curve:
    - time: 0
      value: {fileID: 21300000, guid: bdf1b5ab239bb9b49952c7c04ac8962a, type: 3}
    - time: 0.06666667
      value: {fileID: 21300000, guid: 702eeef1d0ded1a4cb95ec2c17f3d5d8, type: 3}
    - time: 0.15
      value: {fileID: 21300000, guid: 5441f221b9acbb04dace55317b0c7370, type: 3}
    - time: 0.21666667
      value: {fileID: 21300000, guid: ea708151c62619248837b20e91b42948, type: 3}
    - time: 0.28333333
      value: {fileID: 21300000, guid: 13a0abc618d5ee148aa80b89aa02a028, type: 3}
    - time: 0.35
      value: {fileID: 21300000, guid: 8a8fce50e281b9a45a9ab970cfb3793c, type: 3}
    - time: 0.43333334
      value: {fileID: 21300000, guid: 7fdd9db2f8c82494f8d940790fafbd0f, type: 3}
    - time: 0.5
      value: {fileID: 21300000, guid: ff8ddfaebfb63a24b8ac3c677d758be8, type: 3}
    attribute: m_Sprite
    path: 
    classID: 212
    script: {fileID: 0}
  m_SampleRate: 60
  m_WrapMode: 0
  m_Bounds:
    m_Center: {x: 0, y: 0, z: 0}
    m_Extent: {x: 0, y: 0, z: 0}
  m_ClipBindingConstant:
    genericBindings:
    - serializedVersion: 2
      path: 0
      attribute: 0
      script: {fileID: 0}
      typeID: 212
      customType: 23
      isPPtrCurve: 1
    pptrCurveMapping:
    - {fileID: 21300000, guid: bdf1b5ab239bb9b49952c7c04ac8962a, type: 3}
    - {fileID: 21300000, guid: 702eeef1d0ded1a4cb95ec2c17f3d5d8, type: 3}
    - {fileID: 21300000, guid: 5441f221b9acbb04dace55317b0c7370, type: 3}
    - {fileID: 21300000, guid: ea708151c62619248837b20e91b42948, type: 3}
    - {fileID: 21300000, guid: 13a0abc618d5ee148aa80b89aa02a028, type: 3}
    - {fileID: 21300000, guid: 8a8fce50e281b9a45a9ab970cfb3793c, type: 3}
    - {fileID: 21300000, guid: 7fdd9db2f8c82494f8d940790fafbd0f, type: 3}
    - {fileID: 21300000, guid: ff8ddfaebfb63a24b8ac3c677d758be8, type: 3}
  m_AnimationClipSettings:
    serializedVersion: 2
    m_AdditiveReferencePoseClip: {fileID: 0}
    m_AdditiveReferencePoseTime: 0
    m_StartTime: 0
    m_StopTime: 0.51666665
    m_OrientationOffsetY: 0
    m_Level: 0
    m_CycleOffset: 0
    m_HasAdditiveReferencePose: 0
    m_LoopTime: 1
    m_LoopBlend: 0
    m_LoopBlendOrientation: 0
    m_LoopBlendPositionY: 0
    m_LoopBlendPositionXZ: 0
    m_KeepOriginalOrientation: 0
    m_KeepOriginalPositionY: 1
    m_KeepOriginalPositionXZ: 0
    m_HeightFromFeet: 0
    m_Mirror: 0
  m_EditorCurves: []
  m_EulerEditorCurves: []
  m_HasGenericRootTransform: 0
  m_HasMotionFloatCurves: 0
  m_Events: []
