%YAML 1.1
%TAG !u! tag:unity3d.com,2011:
--- !u!1 &3504681459037706733
GameObject:
  m_ObjectHideFlags: 0
  m_CorrespondingSourceObject: {fileID: 0}
  m_PrefabInstance: {fileID: 0}
  m_PrefabAsset: {fileID: 0}
  serializedVersion: 6
  m_Component:
  - component: {fileID: 5901613854758652179}
  - component: {fileID: 5758686034974119441}
  m_Layer: 0
  m_Name: Castle props
  m_TagString: Untagged
  m_Icon: {fileID: 0}
  m_NavMeshLayer: 0
  m_StaticEditorFlags: 0
  m_IsActive: 1
--- !u!4 &5901613854758652179
Transform:
  m_ObjectHideFlags: 0
  m_CorrespondingSourceObject: {fileID: 0}
  m_PrefabInstance: {fileID: 0}
  m_PrefabAsset: {fileID: 0}
  m_GameObject: {fileID: 3504681459037706733}
  m_LocalRotation: {x: 0, y: 0, z: 0, w: 1}
  m_LocalPosition: {x: 0, y: 0, z: 0}
  m_LocalScale: {x: 1, y: 1, z: 1}
  m_ConstrainProportionsScale: 0
  m_Children:
  - {fileID: 5448269052323899050}
  m_Father: {fileID: 0}
  m_RootOrder: 0
  m_LocalEulerAnglesHint: {x: 0, y: 0, z: 0}
--- !u!156049354 &5758686034974119441
Grid:
  m_ObjectHideFlags: 0
  m_CorrespondingSourceObject: {fileID: 0}
  m_PrefabInstance: {fileID: 0}
  m_PrefabAsset: {fileID: 0}
  m_GameObject: {fileID: 3504681459037706733}
  m_Enabled: 1
  m_CellSize: {x: 1, y: 1, z: 0}
  m_CellGap: {x: 0, y: 0, z: 0}
  m_CellLayout: 0
  m_CellSwizzle: 0
--- !u!1 &8922890435401942699
GameObject:
  m_ObjectHideFlags: 0
  m_CorrespondingSourceObject: {fileID: 0}
  m_PrefabInstance: {fileID: 0}
  m_PrefabAsset: {fileID: 0}
  serializedVersion: 6
  m_Component:
  - component: {fileID: 5448269052323899050}
  - component: {fileID: 1749041284885410357}
  - component: {fileID: 666083125677764841}
  m_Layer: 0
  m_Name: Layer1
  m_TagString: Untagged
  m_Icon: {fileID: 0}
  m_NavMeshLayer: 0
  m_StaticEditorFlags: 0
  m_IsActive: 1
--- !u!4 &5448269052323899050
Transform:
  m_ObjectHideFlags: 0
  m_CorrespondingSourceObject: {fileID: 0}
  m_PrefabInstance: {fileID: 0}
  m_PrefabAsset: {fileID: 0}
  m_GameObject: {fileID: 8922890435401942699}
  m_LocalRotation: {x: -0, y: -0, z: -0, w: 1}
  m_LocalPosition: {x: 0, y: 0, z: 0}
  m_LocalScale: {x: 1, y: 1, z: 1}
  m_ConstrainProportionsScale: 0
  m_Children: []
  m_Father: {fileID: 5901613854758652179}
  m_RootOrder: 0
  m_LocalEulerAnglesHint: {x: 0, y: 0, z: 0}
--- !u!1839735485 &1749041284885410357
Tilemap:
  m_ObjectHideFlags: 0
  m_CorrespondingSourceObject: {fileID: 0}
  m_PrefabInstance: {fileID: 0}
  m_PrefabAsset: {fileID: 0}
  m_GameObject: {fileID: 8922890435401942699}
  m_Enabled: 1
  m_Tiles:
  - first: {x: -6, y: -8, z: 0}
    second:
      serializedVersion: 2
      m_TileIndex: 64
      m_TileSpriteIndex: 64
      m_TileMatrixIndex: 0
      m_TileColorIndex: 0
      m_TileObjectToInstantiateIndex: 65535
      dummyAlignment: 0
      m_AllTileFlags: 1073741825
  - first: {x: -5, y: -8, z: 0}
    second:
      serializedVersion: 2
      m_TileIndex: 65
      m_TileSpriteIndex: 65
      m_TileMatrixIndex: 0
      m_TileColorIndex: 0
      m_TileObjectToInstantiateIndex: 65535
      dummyAlignment: 0
      m_AllTileFlags: 1073741825
  - first: {x: -4, y: -8, z: 0}
    second:
      serializedVersion: 2
      m_TileIndex: 66
      m_TileSpriteIndex: 66
      m_TileMatrixIndex: 0
      m_TileColorIndex: 0
      m_TileObjectToInstantiateIndex: 65535
      dummyAlignment: 0
      m_AllTileFlags: 1073741825
  - first: {x: -6, y: -7, z: 0}
    second:
      serializedVersion: 2
      m_TileIndex: 56
      m_TileSpriteIndex: 56
      m_TileMatrixIndex: 0
      m_TileColorIndex: 0
      m_TileObjectToInstantiateIndex: 65535
      dummyAlignment: 0
      m_AllTileFlags: 1073741825
  - first: {x: -5, y: -7, z: 0}
    second:
      serializedVersion: 2
      m_TileIndex: 57
      m_TileSpriteIndex: 57
      m_TileMatrixIndex: 0
      m_TileColorIndex: 0
      m_TileObjectToInstantiateIndex: 65535
      dummyAlignment: 0
      m_AllTileFlags: 1073741825
  - first: {x: -4, y: -7, z: 0}
    second:
      serializedVersion: 2
      m_TileIndex: 58
      m_TileSpriteIndex: 58
      m_TileMatrixIndex: 0
      m_TileColorIndex: 0
      m_TileObjectToInstantiateIndex: 65535
      dummyAlignment: 0
      m_AllTileFlags: 1073741825
  - first: {x: -3, y: -7, z: 0}
    second:
      serializedVersion: 2
      m_TileIndex: 59
      m_TileSpriteIndex: 59
      m_TileMatrixIndex: 0
      m_TileColorIndex: 0
      m_TileObjectToInstantiateIndex: 65535
      dummyAlignment: 0
      m_AllTileFlags: 1073741825
  - first: {x: -2, y: -7, z: 0}
    second:
      serializedVersion: 2
      m_TileIndex: 60
      m_TileSpriteIndex: 60
      m_TileMatrixIndex: 0
      m_TileColorIndex: 0
      m_TileObjectToInstantiateIndex: 65535
      dummyAlignment: 0
      m_AllTileFlags: 1073741825
  - first: {x: -1, y: -7, z: 0}
    second:
      serializedVersion: 2
      m_TileIndex: 61
      m_TileSpriteIndex: 61
      m_TileMatrixIndex: 0
      m_TileColorIndex: 0
      m_TileObjectToInstantiateIndex: 65535
      dummyAlignment: 0
      m_AllTileFlags: 1073741825
  - first: {x: 0, y: -7, z: 0}
    second:
      serializedVersion: 2
      m_TileIndex: 62
      m_TileSpriteIndex: 62
      m_TileMatrixIndex: 0
      m_TileColorIndex: 0
      m_TileObjectToInstantiateIndex: 65535
      dummyAlignment: 0
      m_AllTileFlags: 1073741825
  - first: {x: 1, y: -7, z: 0}
    second:
      serializedVersion: 2
      m_TileIndex: 63
      m_TileSpriteIndex: 63
      m_TileMatrixIndex: 0
      m_TileColorIndex: 0
      m_TileObjectToInstantiateIndex: 65535
      dummyAlignment: 0
      m_AllTileFlags: 1073741825
  - first: {x: -6, y: -6, z: 0}
    second:
      serializedVersion: 2
      m_TileIndex: 48
      m_TileSpriteIndex: 48
      m_TileMatrixIndex: 0
      m_TileColorIndex: 0
      m_TileObjectToInstantiateIndex: 65535
      dummyAlignment: 0
      m_AllTileFlags: 1073741825
  - first: {x: -5, y: -6, z: 0}
    second:
      serializedVersion: 2
      m_TileIndex: 49
      m_TileSpriteIndex: 49
      m_TileMatrixIndex: 0
      m_TileColorIndex: 0
      m_TileObjectToInstantiateIndex: 65535
      dummyAlignment: 0
      m_AllTileFlags: 1073741825
  - first: {x: -4, y: -6, z: 0}
    second:
      serializedVersion: 2
      m_TileIndex: 50
      m_TileSpriteIndex: 50
      m_TileMatrixIndex: 0
      m_TileColorIndex: 0
      m_TileObjectToInstantiateIndex: 65535
      dummyAlignment: 0
      m_AllTileFlags: 1073741825
  - first: {x: -3, y: -6, z: 0}
    second:
      serializedVersion: 2
      m_TileIndex: 51
      m_TileSpriteIndex: 51
      m_TileMatrixIndex: 0
      m_TileColorIndex: 0
      m_TileObjectToInstantiateIndex: 65535
      dummyAlignment: 0
      m_AllTileFlags: 1073741825
  - first: {x: -2, y: -6, z: 0}
    second:
      serializedVersion: 2
      m_TileIndex: 52
      m_TileSpriteIndex: 52
      m_TileMatrixIndex: 0
      m_TileColorIndex: 0
      m_TileObjectToInstantiateIndex: 65535
      dummyAlignment: 0
      m_AllTileFlags: 1073741825
  - first: {x: -1, y: -6, z: 0}
    second:
      serializedVersion: 2
      m_TileIndex: 53
      m_TileSpriteIndex: 53
      m_TileMatrixIndex: 0
      m_TileColorIndex: 0
      m_TileObjectToInstantiateIndex: 65535
      dummyAlignment: 0
      m_AllTileFlags: 1073741825
  - first: {x: 0, y: -6, z: 0}
    second:
      serializedVersion: 2
      m_TileIndex: 54
      m_TileSpriteIndex: 54
      m_TileMatrixIndex: 0
      m_TileColorIndex: 0
      m_TileObjectToInstantiateIndex: 65535
      dummyAlignment: 0
      m_AllTileFlags: 1073741825
  - first: {x: 1, y: -6, z: 0}
    second:
      serializedVersion: 2
      m_TileIndex: 55
      m_TileSpriteIndex: 55
      m_TileMatrixIndex: 0
      m_TileColorIndex: 0
      m_TileObjectToInstantiateIndex: 65535
      dummyAlignment: 0
      m_AllTileFlags: 1073741825
  - first: {x: -6, y: -5, z: 0}
    second:
      serializedVersion: 2
      m_TileIndex: 40
      m_TileSpriteIndex: 40
      m_TileMatrixIndex: 0
      m_TileColorIndex: 0
      m_TileObjectToInstantiateIndex: 65535
      dummyAlignment: 0
      m_AllTileFlags: 1073741825
  - first: {x: -5, y: -5, z: 0}
    second:
      serializedVersion: 2
      m_TileIndex: 41
      m_TileSpriteIndex: 41
      m_TileMatrixIndex: 0
      m_TileColorIndex: 0
      m_TileObjectToInstantiateIndex: 65535
      dummyAlignment: 0
      m_AllTileFlags: 1073741825
  - first: {x: -4, y: -5, z: 0}
    second:
      serializedVersion: 2
      m_TileIndex: 42
      m_TileSpriteIndex: 42
      m_TileMatrixIndex: 0
      m_TileColorIndex: 0
      m_TileObjectToInstantiateIndex: 65535
      dummyAlignment: 0
      m_AllTileFlags: 1073741825
  - first: {x: -3, y: -5, z: 0}
    second:
      serializedVersion: 2
      m_TileIndex: 43
      m_TileSpriteIndex: 43
      m_TileMatrixIndex: 0
      m_TileColorIndex: 0
      m_TileObjectToInstantiateIndex: 65535
      dummyAlignment: 0
      m_AllTileFlags: 1073741825
  - first: {x: -2, y: -5, z: 0}
    second:
      serializedVersion: 2
      m_TileIndex: 44
      m_TileSpriteIndex: 44
      m_TileMatrixIndex: 0
      m_TileColorIndex: 0
      m_TileObjectToInstantiateIndex: 65535
      dummyAlignment: 0
      m_AllTileFlags: 1073741825
  - first: {x: -1, y: -5, z: 0}
    second:
      serializedVersion: 2
      m_TileIndex: 45
      m_TileSpriteIndex: 45
      m_TileMatrixIndex: 0
      m_TileColorIndex: 0
      m_TileObjectToInstantiateIndex: 65535
      dummyAlignment: 0
      m_AllTileFlags: 1073741825
  - first: {x: 0, y: -5, z: 0}
    second:
      serializedVersion: 2
      m_TileIndex: 46
      m_TileSpriteIndex: 46
      m_TileMatrixIndex: 0
      m_TileColorIndex: 0
      m_TileObjectToInstantiateIndex: 65535
      dummyAlignment: 0
      m_AllTileFlags: 1073741825
  - first: {x: 1, y: -5, z: 0}
    second:
      serializedVersion: 2
      m_TileIndex: 47
      m_TileSpriteIndex: 47
      m_TileMatrixIndex: 0
      m_TileColorIndex: 0
      m_TileObjectToInstantiateIndex: 65535
      dummyAlignment: 0
      m_AllTileFlags: 1073741825
  - first: {x: -6, y: -4, z: 0}
    second:
      serializedVersion: 2
      m_TileIndex: 32
      m_TileSpriteIndex: 32
      m_TileMatrixIndex: 0
      m_TileColorIndex: 0
      m_TileObjectToInstantiateIndex: 65535
      dummyAlignment: 0
      m_AllTileFlags: 1073741825
  - first: {x: -5, y: -4, z: 0}
    second:
      serializedVersion: 2
      m_TileIndex: 33
      m_TileSpriteIndex: 33
      m_TileMatrixIndex: 0
      m_TileColorIndex: 0
      m_TileObjectToInstantiateIndex: 65535
      dummyAlignment: 0
      m_AllTileFlags: 1073741825
  - first: {x: -4, y: -4, z: 0}
    second:
      serializedVersion: 2
      m_TileIndex: 34
      m_TileSpriteIndex: 34
      m_TileMatrixIndex: 0
      m_TileColorIndex: 0
      m_TileObjectToInstantiateIndex: 65535
      dummyAlignment: 0
      m_AllTileFlags: 1073741825
  - first: {x: -3, y: -4, z: 0}
    second:
      serializedVersion: 2
      m_TileIndex: 35
      m_TileSpriteIndex: 35
      m_TileMatrixIndex: 0
      m_TileColorIndex: 0
      m_TileObjectToInstantiateIndex: 65535
      dummyAlignment: 0
      m_AllTileFlags: 1073741825
  - first: {x: -2, y: -4, z: 0}
    second:
      serializedVersion: 2
      m_TileIndex: 36
      m_TileSpriteIndex: 36
      m_TileMatrixIndex: 0
      m_TileColorIndex: 0
      m_TileObjectToInstantiateIndex: 65535
      dummyAlignment: 0
      m_AllTileFlags: 1073741825
  - first: {x: -1, y: -4, z: 0}
    second:
      serializedVersion: 2
      m_TileIndex: 37
      m_TileSpriteIndex: 37
      m_TileMatrixIndex: 0
      m_TileColorIndex: 0
      m_TileObjectToInstantiateIndex: 65535
      dummyAlignment: 0
      m_AllTileFlags: 1073741825
  - first: {x: 0, y: -4, z: 0}
    second:
      serializedVersion: 2
      m_TileIndex: 38
      m_TileSpriteIndex: 38
      m_TileMatrixIndex: 0
      m_TileColorIndex: 0
      m_TileObjectToInstantiateIndex: 65535
      dummyAlignment: 0
      m_AllTileFlags: 1073741825
  - first: {x: 1, y: -4, z: 0}
    second:
      serializedVersion: 2
      m_TileIndex: 39
      m_TileSpriteIndex: 39
      m_TileMatrixIndex: 0
      m_TileColorIndex: 0
      m_TileObjectToInstantiateIndex: 65535
      dummyAlignment: 0
      m_AllTileFlags: 1073741825
  - first: {x: -6, y: -3, z: 0}
    second:
      serializedVersion: 2
      m_TileIndex: 24
      m_TileSpriteIndex: 24
      m_TileMatrixIndex: 0
      m_TileColorIndex: 0
      m_TileObjectToInstantiateIndex: 65535
      dummyAlignment: 0
      m_AllTileFlags: 1073741825
  - first: {x: -5, y: -3, z: 0}
    second:
      serializedVersion: 2
      m_TileIndex: 25
      m_TileSpriteIndex: 25
      m_TileMatrixIndex: 0
      m_TileColorIndex: 0
      m_TileObjectToInstantiateIndex: 65535
      dummyAlignment: 0
      m_AllTileFlags: 1073741825
  - first: {x: -4, y: -3, z: 0}
    second:
      serializedVersion: 2
      m_TileIndex: 26
      m_TileSpriteIndex: 26
      m_TileMatrixIndex: 0
      m_TileColorIndex: 0
      m_TileObjectToInstantiateIndex: 65535
      dummyAlignment: 0
      m_AllTileFlags: 1073741825
  - first: {x: -3, y: -3, z: 0}
    second:
      serializedVersion: 2
      m_TileIndex: 27
      m_TileSpriteIndex: 27
      m_TileMatrixIndex: 0
      m_TileColorIndex: 0
      m_TileObjectToInstantiateIndex: 65535
      dummyAlignment: 0
      m_AllTileFlags: 1073741825
  - first: {x: -2, y: -3, z: 0}
    second:
      serializedVersion: 2
      m_TileIndex: 28
      m_TileSpriteIndex: 28
      m_TileMatrixIndex: 0
      m_TileColorIndex: 0
      m_TileObjectToInstantiateIndex: 65535
      dummyAlignment: 0
      m_AllTileFlags: 1073741825
  - first: {x: -1, y: -3, z: 0}
    second:
      serializedVersion: 2
      m_TileIndex: 29
      m_TileSpriteIndex: 29
      m_TileMatrixIndex: 0
      m_TileColorIndex: 0
      m_TileObjectToInstantiateIndex: 65535
      dummyAlignment: 0
      m_AllTileFlags: 1073741825
  - first: {x: 0, y: -3, z: 0}
    second:
      serializedVersion: 2
      m_TileIndex: 30
      m_TileSpriteIndex: 30
      m_TileMatrixIndex: 0
      m_TileColorIndex: 0
      m_TileObjectToInstantiateIndex: 65535
      dummyAlignment: 0
      m_AllTileFlags: 1073741825
  - first: {x: 1, y: -3, z: 0}
    second:
      serializedVersion: 2
      m_TileIndex: 31
      m_TileSpriteIndex: 31
      m_TileMatrixIndex: 0
      m_TileColorIndex: 0
      m_TileObjectToInstantiateIndex: 65535
      dummyAlignment: 0
      m_AllTileFlags: 1073741825
  - first: {x: -6, y: -2, z: 0}
    second:
      serializedVersion: 2
      m_TileIndex: 16
      m_TileSpriteIndex: 16
      m_TileMatrixIndex: 0
      m_TileColorIndex: 0
      m_TileObjectToInstantiateIndex: 65535
      dummyAlignment: 0
      m_AllTileFlags: 1073741825
  - first: {x: -5, y: -2, z: 0}
    second:
      serializedVersion: 2
      m_TileIndex: 17
      m_TileSpriteIndex: 17
      m_TileMatrixIndex: 0
      m_TileColorIndex: 0
      m_TileObjectToInstantiateIndex: 65535
      dummyAlignment: 0
      m_AllTileFlags: 1073741825
  - first: {x: -4, y: -2, z: 0}
    second:
      serializedVersion: 2
      m_TileIndex: 18
      m_TileSpriteIndex: 18
      m_TileMatrixIndex: 0
      m_TileColorIndex: 0
      m_TileObjectToInstantiateIndex: 65535
      dummyAlignment: 0
      m_AllTileFlags: 1073741825
  - first: {x: -3, y: -2, z: 0}
    second:
      serializedVersion: 2
      m_TileIndex: 19
      m_TileSpriteIndex: 19
      m_TileMatrixIndex: 0
      m_TileColorIndex: 0
      m_TileObjectToInstantiateIndex: 65535
      dummyAlignment: 0
      m_AllTileFlags: 1073741825
  - first: {x: -2, y: -2, z: 0}
    second:
      serializedVersion: 2
      m_TileIndex: 20
      m_TileSpriteIndex: 20
      m_TileMatrixIndex: 0
      m_TileColorIndex: 0
      m_TileObjectToInstantiateIndex: 65535
      dummyAlignment: 0
      m_AllTileFlags: 1073741825
  - first: {x: -1, y: -2, z: 0}
    second:
      serializedVersion: 2
      m_TileIndex: 21
      m_TileSpriteIndex: 21
      m_TileMatrixIndex: 0
      m_TileColorIndex: 0
      m_TileObjectToInstantiateIndex: 65535
      dummyAlignment: 0
      m_AllTileFlags: 1073741825
  - first: {x: 0, y: -2, z: 0}
    second:
      serializedVersion: 2
      m_TileIndex: 22
      m_TileSpriteIndex: 22
      m_TileMatrixIndex: 0
      m_TileColorIndex: 0
      m_TileObjectToInstantiateIndex: 65535
      dummyAlignment: 0
      m_AllTileFlags: 1073741825
  - first: {x: 1, y: -2, z: 0}
    second:
      serializedVersion: 2
      m_TileIndex: 23
      m_TileSpriteIndex: 23
      m_TileMatrixIndex: 0
      m_TileColorIndex: 0
      m_TileObjectToInstantiateIndex: 65535
      dummyAlignment: 0
      m_AllTileFlags: 1073741825
  - first: {x: -6, y: -1, z: 0}
    second:
      serializedVersion: 2
      m_TileIndex: 8
      m_TileSpriteIndex: 8
      m_TileMatrixIndex: 0
      m_TileColorIndex: 0
      m_TileObjectToInstantiateIndex: 65535
      dummyAlignment: 0
      m_AllTileFlags: 1073741825
  - first: {x: -5, y: -1, z: 0}
    second:
      serializedVersion: 2
      m_TileIndex: 9
      m_TileSpriteIndex: 9
      m_TileMatrixIndex: 0
      m_TileColorIndex: 0
      m_TileObjectToInstantiateIndex: 65535
      dummyAlignment: 0
      m_AllTileFlags: 1073741825
  - first: {x: -4, y: -1, z: 0}
    second:
      serializedVersion: 2
      m_TileIndex: 10
      m_TileSpriteIndex: 10
      m_TileMatrixIndex: 0
      m_TileColorIndex: 0
      m_TileObjectToInstantiateIndex: 65535
      dummyAlignment: 0
      m_AllTileFlags: 1073741825
  - first: {x: -3, y: -1, z: 0}
    second:
      serializedVersion: 2
      m_TileIndex: 11
      m_TileSpriteIndex: 11
      m_TileMatrixIndex: 0
      m_TileColorIndex: 0
      m_TileObjectToInstantiateIndex: 65535
      dummyAlignment: 0
      m_AllTileFlags: 1073741825
  - first: {x: -2, y: -1, z: 0}
    second:
      serializedVersion: 2
      m_TileIndex: 12
      m_TileSpriteIndex: 12
      m_TileMatrixIndex: 0
      m_TileColorIndex: 0
      m_TileObjectToInstantiateIndex: 65535
      dummyAlignment: 0
      m_AllTileFlags: 1073741825
  - first: {x: -1, y: -1, z: 0}
    second:
      serializedVersion: 2
      m_TileIndex: 13
      m_TileSpriteIndex: 13
      m_TileMatrixIndex: 0
      m_TileColorIndex: 0
      m_TileObjectToInstantiateIndex: 65535
      dummyAlignment: 0
      m_AllTileFlags: 1073741825
  - first: {x: 0, y: -1, z: 0}
    second:
      serializedVersion: 2
      m_TileIndex: 14
      m_TileSpriteIndex: 14
      m_TileMatrixIndex: 0
      m_TileColorIndex: 0
      m_TileObjectToInstantiateIndex: 65535
      dummyAlignment: 0
      m_AllTileFlags: 1073741825
  - first: {x: 1, y: -1, z: 0}
    second:
      serializedVersion: 2
      m_TileIndex: 15
      m_TileSpriteIndex: 15
      m_TileMatrixIndex: 0
      m_TileColorIndex: 0
      m_TileObjectToInstantiateIndex: 65535
      dummyAlignment: 0
      m_AllTileFlags: 1073741825
  - first: {x: -6, y: 0, z: 0}
    second:
      serializedVersion: 2
      m_TileIndex: 0
      m_TileSpriteIndex: 0
      m_TileMatrixIndex: 0
      m_TileColorIndex: 0
      m_TileObjectToInstantiateIndex: 65535
      dummyAlignment: 0
      m_AllTileFlags: 1073741825
  - first: {x: -5, y: 0, z: 0}
    second:
      serializedVersion: 2
      m_TileIndex: 1
      m_TileSpriteIndex: 1
      m_TileMatrixIndex: 0
      m_TileColorIndex: 0
      m_TileObjectToInstantiateIndex: 65535
      dummyAlignment: 0
      m_AllTileFlags: 1073741825
  - first: {x: -4, y: 0, z: 0}
    second:
      serializedVersion: 2
      m_TileIndex: 2
      m_TileSpriteIndex: 2
      m_TileMatrixIndex: 0
      m_TileColorIndex: 0
      m_TileObjectToInstantiateIndex: 65535
      dummyAlignment: 0
      m_AllTileFlags: 1073741825
  - first: {x: -3, y: 0, z: 0}
    second:
      serializedVersion: 2
      m_TileIndex: 3
      m_TileSpriteIndex: 3
      m_TileMatrixIndex: 0
      m_TileColorIndex: 0
      m_TileObjectToInstantiateIndex: 65535
      dummyAlignment: 0
      m_AllTileFlags: 1073741825
  - first: {x: -2, y: 0, z: 0}
    second:
      serializedVersion: 2
      m_TileIndex: 4
      m_TileSpriteIndex: 4
      m_TileMatrixIndex: 0
      m_TileColorIndex: 0
      m_TileObjectToInstantiateIndex: 65535
      dummyAlignment: 0
      m_AllTileFlags: 1073741825
  - first: {x: -1, y: 0, z: 0}
    second:
      serializedVersion: 2
      m_TileIndex: 5
      m_TileSpriteIndex: 5
      m_TileMatrixIndex: 0
      m_TileColorIndex: 0
      m_TileObjectToInstantiateIndex: 65535
      dummyAlignment: 0
      m_AllTileFlags: 1073741825
  - first: {x: 0, y: 0, z: 0}
    second:
      serializedVersion: 2
      m_TileIndex: 6
      m_TileSpriteIndex: 6
      m_TileMatrixIndex: 0
      m_TileColorIndex: 0
      m_TileObjectToInstantiateIndex: 65535
      dummyAlignment: 0
      m_AllTileFlags: 1073741825
  - first: {x: 1, y: 0, z: 0}
    second:
      serializedVersion: 2
      m_TileIndex: 7
      m_TileSpriteIndex: 7
      m_TileMatrixIndex: 0
      m_TileColorIndex: 0
      m_TileObjectToInstantiateIndex: 65535
      dummyAlignment: 0
      m_AllTileFlags: 1073741825
  m_AnimatedTiles: {}
  m_TileAssetArray:
  - m_RefCount: 1
    m_Data: {fileID: 11400000, guid: f2e6c6cbbe9a2004aa6c4b678e0b1ef3, type: 2}
  - m_RefCount: 1
    m_Data: {fileID: 11400000, guid: 97b830148e8c15c4c8748ca52371e896, type: 2}
  - m_RefCount: 1
    m_Data: {fileID: 11400000, guid: 0ca4be6c6706d9b4dbfa4ad6d6761054, type: 2}
  - m_RefCount: 1
    m_Data: {fileID: 11400000, guid: 529002731db526e4a85f89edfa4fc404, type: 2}
  - m_RefCount: 1
    m_Data: {fileID: 11400000, guid: a597fed8f79be47498ee0b1b785982a7, type: 2}
  - m_RefCount: 1
    m_Data: {fileID: 11400000, guid: 79d96da0d0ffbd24a9e9ea971daa77cf, type: 2}
  - m_RefCount: 1
    m_Data: {fileID: 11400000, guid: 5518e3ffe2fdf3048909a59f08894ba4, type: 2}
  - m_RefCount: 1
    m_Data: {fileID: 11400000, guid: 079b910112443184bb5d5defee7dbd80, type: 2}
  - m_RefCount: 1
    m_Data: {fileID: 11400000, guid: a774e35d3655980409641115ba3c7c8a, type: 2}
  - m_RefCount: 1
    m_Data: {fileID: 11400000, guid: 8dba2e7790758274bbb9b84e14c32a1f, type: 2}
  - m_RefCount: 1
    m_Data: {fileID: 11400000, guid: 3fab0c5aef7e7614ab4589aa2fe4785b, type: 2}
  - m_RefCount: 1
    m_Data: {fileID: 11400000, guid: 2e4b4fc982e88784e90a33c9202e739e, type: 2}
  - m_RefCount: 1
    m_Data: {fileID: 11400000, guid: ec0851334df965a448c1d332793699f9, type: 2}
  - m_RefCount: 1
    m_Data: {fileID: 11400000, guid: ae520c50696d2324e80b2d62b1a2da5d, type: 2}
  - m_RefCount: 1
    m_Data: {fileID: 11400000, guid: 278626869be5bc84180d6b4541cff86e, type: 2}
  - m_RefCount: 1
    m_Data: {fileID: 11400000, guid: 6cb50e0fca098bb45a34adc10c4cfb43, type: 2}
  - m_RefCount: 1
    m_Data: {fileID: 11400000, guid: 22c6d127912e69b4aa2e1b766559fd9f, type: 2}
  - m_RefCount: 1
    m_Data: {fileID: 11400000, guid: 3dc19d9e890878143a39c9b47ece7c60, type: 2}
  - m_RefCount: 1
    m_Data: {fileID: 11400000, guid: afb5d177179648444b04abf65e5a9300, type: 2}
  - m_RefCount: 1
    m_Data: {fileID: 11400000, guid: 58991b306b3b8f84db6b3e2062d7fbf7, type: 2}
  - m_RefCount: 1
    m_Data: {fileID: 11400000, guid: 57e0c04c1cb29c2418f52eae7ddbd3db, type: 2}
  - m_RefCount: 1
    m_Data: {fileID: 11400000, guid: 9f763f304d0a53f43b87e3d121211a82, type: 2}
  - m_RefCount: 1
    m_Data: {fileID: 11400000, guid: fc63c2e9384ce6846a25b85cbe858d36, type: 2}
  - m_RefCount: 1
    m_Data: {fileID: 11400000, guid: 184414e52e66e3f488b228137f0656b0, type: 2}
  - m_RefCount: 1
    m_Data: {fileID: 11400000, guid: 9353073b1900f854f998be6c6349ee1e, type: 2}
  - m_RefCount: 1
    m_Data: {fileID: 11400000, guid: 7ca5bfa9fb320014fa41c208e19d8aae, type: 2}
  - m_RefCount: 1
    m_Data: {fileID: 11400000, guid: 1bb268d37515cbd47bc54c84c81a9009, type: 2}
  - m_RefCount: 1
    m_Data: {fileID: 11400000, guid: a7a342ae0ece8284c8ba71d32c72a597, type: 2}
  - m_RefCount: 1
    m_Data: {fileID: 11400000, guid: e98a5e2d48a67884b86976246e9cf5d1, type: 2}
  - m_RefCount: 1
    m_Data: {fileID: 11400000, guid: 2a0a02d6558705047962ae5bf99cee43, type: 2}
  - m_RefCount: 1
    m_Data: {fileID: 11400000, guid: 9f3450a25058c9d489a7f93d20eedf87, type: 2}
  - m_RefCount: 1
    m_Data: {fileID: 11400000, guid: 682d5900c7bd35b4eb71289194e3e236, type: 2}
  - m_RefCount: 1
    m_Data: {fileID: 11400000, guid: 88e25fbfc0e61954e92bfb860064629d, type: 2}
  - m_RefCount: 1
    m_Data: {fileID: 11400000, guid: ca400a09df435224b9619de532202bd1, type: 2}
  - m_RefCount: 1
    m_Data: {fileID: 11400000, guid: 8bde7336a836cf041b1f7cda56df5481, type: 2}
  - m_RefCount: 1
    m_Data: {fileID: 11400000, guid: 455bf63835d8e974a80736fac70b0f4e, type: 2}
  - m_RefCount: 1
    m_Data: {fileID: 11400000, guid: b0cfdbd5aa4293a4db18c67cf8461b43, type: 2}
  - m_RefCount: 1
    m_Data: {fileID: 11400000, guid: 9dab9935f6abb674591617a926307a38, type: 2}
  - m_RefCount: 1
    m_Data: {fileID: 11400000, guid: 10cb7f3da1276f949bed640ff427ee49, type: 2}
  - m_RefCount: 1
    m_Data: {fileID: 11400000, guid: da752bc860cc6ef4dbeff0c2f82f4bd4, type: 2}
  - m_RefCount: 1
    m_Data: {fileID: 11400000, guid: d57be0c9bb7382548979bb4e58cb4e40, type: 2}
  - m_RefCount: 1
    m_Data: {fileID: 11400000, guid: f857b83b35733e746aee998acbfc61db, type: 2}
  - m_RefCount: 1
    m_Data: {fileID: 11400000, guid: 211d90840c1251e4b9b5854c7a7d382e, type: 2}
  - m_RefCount: 1
    m_Data: {fileID: 11400000, guid: fceb3262c84b2374896239aa6f13ac6e, type: 2}
  - m_RefCount: 1
    m_Data: {fileID: 11400000, guid: 5f95f7e42c97fc84d9cfd58dabb2a6b5, type: 2}
  - m_RefCount: 1
    m_Data: {fileID: 11400000, guid: 4b5b7d8b70709774cb716d22a46fe726, type: 2}
  - m_RefCount: 1
    m_Data: {fileID: 11400000, guid: f7ece34f8cdd3904aba90186aca26cbb, type: 2}
  - m_RefCount: 1
    m_Data: {fileID: 11400000, guid: 7fb96062d27f4784bb9b8b0256e719e2, type: 2}
  - m_RefCount: 1
    m_Data: {fileID: 11400000, guid: c97501bf74f0c42479b64d5d058590b6, type: 2}
  - m_RefCount: 1
    m_Data: {fileID: 11400000, guid: 285f0227f416d8e4594775268627db7b, type: 2}
  - m_RefCount: 1
    m_Data: {fileID: 11400000, guid: 907cae9ad3d58bb4d97a323daddfe016, type: 2}
  - m_RefCount: 1
    m_Data: {fileID: 11400000, guid: aa36dd57bc89fb54da4cdc51716f60e5, type: 2}
  - m_RefCount: 1
    m_Data: {fileID: 11400000, guid: 3f5f439b72b72ef4b9ea8df6d7cd86f4, type: 2}
  - m_RefCount: 1
    m_Data: {fileID: 11400000, guid: a76907c94764f1d4fb776910055e6cba, type: 2}
  - m_RefCount: 1
    m_Data: {fileID: 11400000, guid: 8976076486306034e8a4929a8080a9df, type: 2}
  - m_RefCount: 1
    m_Data: {fileID: 11400000, guid: 2a9978156f7f9d647a317bf62053842d, type: 2}
  - m_RefCount: 1
    m_Data: {fileID: 11400000, guid: 21849cc71bc537c47b919eb28f70eafd, type: 2}
  - m_RefCount: 1
    m_Data: {fileID: 11400000, guid: 32f3397903f165b479fb370efaf516ba, type: 2}
  - m_RefCount: 1
    m_Data: {fileID: 11400000, guid: 7093919ace6fe124ea27afbc2bf5cacd, type: 2}
  - m_RefCount: 1
    m_Data: {fileID: 11400000, guid: e97a99e9ac6dd8342bfc22bee2f41a4b, type: 2}
  - m_RefCount: 1
    m_Data: {fileID: 11400000, guid: 09e81a3e43d6650458d9f0b08d864aca, type: 2}
  - m_RefCount: 1
    m_Data: {fileID: 11400000, guid: c45dade659174cc408081e57dde287d6, type: 2}
  - m_RefCount: 1
    m_Data: {fileID: 11400000, guid: 3ff3f9361441e634ba445cf7ecd93aa3, type: 2}
  - m_RefCount: 1
    m_Data: {fileID: 11400000, guid: 8d61990bb260bb74aacf5e70e1cde6db, type: 2}
  - m_RefCount: 1
    m_Data: {fileID: 11400000, guid: 96bfb420115d20046941751c440b8a0e, type: 2}
  - m_RefCount: 1
    m_Data: {fileID: 11400000, guid: f14d2dc8c647d6d4fa9db0c513363e3a, type: 2}
  - m_RefCount: 1
    m_Data: {fileID: 11400000, guid: e2417ff0129d9654890d94350ca9845d, type: 2}
  m_TileSpriteArray:
  - m_RefCount: 1
    m_Data: {fileID: -1621165723, guid: b88a389fb7b73fd4784ef718202244bb, type: 3}
  - m_RefCount: 1
    m_Data: {fileID: 1904564679, guid: b88a389fb7b73fd4784ef718202244bb, type: 3}
  - m_RefCount: 1
    m_Data: {fileID: -1928763923, guid: b88a389fb7b73fd4784ef718202244bb, type: 3}
  - m_RefCount: 1
    m_Data: {fileID: -1970809529, guid: b88a389fb7b73fd4784ef718202244bb, type: 3}
  - m_RefCount: 1
    m_Data: {fileID: -387774244, guid: b88a389fb7b73fd4784ef718202244bb, type: 3}
  - m_RefCount: 1
    m_Data: {fileID: 626453595, guid: b88a389fb7b73fd4784ef718202244bb, type: 3}
  - m_RefCount: 1
    m_Data: {fileID: -102367172, guid: b88a389fb7b73fd4784ef718202244bb, type: 3}
  - m_RefCount: 1
    m_Data: {fileID: 599508928, guid: b88a389fb7b73fd4784ef718202244bb, type: 3}
  - m_RefCount: 1
    m_Data: {fileID: -1819212570, guid: b88a389fb7b73fd4784ef718202244bb, type: 3}
  - m_RefCount: 1
    m_Data: {fileID: 2038345447, guid: b88a389fb7b73fd4784ef718202244bb, type: 3}
  - m_RefCount: 1
    m_Data: {fileID: -496338539, guid: b88a389fb7b73fd4784ef718202244bb, type: 3}
  - m_RefCount: 1
    m_Data: {fileID: 1085595813, guid: b88a389fb7b73fd4784ef718202244bb, type: 3}
  - m_RefCount: 1
    m_Data: {fileID: 1640994063, guid: b88a389fb7b73fd4784ef718202244bb, type: 3}
  - m_RefCount: 1
    m_Data: {fileID: 1700630215, guid: b88a389fb7b73fd4784ef718202244bb, type: 3}
  - m_RefCount: 1
    m_Data: {fileID: 861723497, guid: b88a389fb7b73fd4784ef718202244bb, type: 3}
  - m_RefCount: 1
    m_Data: {fileID: -1497266651, guid: b88a389fb7b73fd4784ef718202244bb, type: 3}
  - m_RefCount: 1
    m_Data: {fileID: -571199641, guid: b88a389fb7b73fd4784ef718202244bb, type: 3}
  - m_RefCount: 1
    m_Data: {fileID: 1165114059, guid: b88a389fb7b73fd4784ef718202244bb, type: 3}
  - m_RefCount: 1
    m_Data: {fileID: 572002663, guid: b88a389fb7b73fd4784ef718202244bb, type: 3}
  - m_RefCount: 1
    m_Data: {fileID: 1603304952, guid: b88a389fb7b73fd4784ef718202244bb, type: 3}
  - m_RefCount: 1
    m_Data: {fileID: 447041800, guid: b88a389fb7b73fd4784ef718202244bb, type: 3}
  - m_RefCount: 1
    m_Data: {fileID: -2116885956, guid: b88a389fb7b73fd4784ef718202244bb, type: 3}
  - m_RefCount: 1
    m_Data: {fileID: 1310194437, guid: b88a389fb7b73fd4784ef718202244bb, type: 3}
  - m_RefCount: 1
    m_Data: {fileID: 599526282, guid: b88a389fb7b73fd4784ef718202244bb, type: 3}
  - m_RefCount: 1
    m_Data: {fileID: 1933423158, guid: b88a389fb7b73fd4784ef718202244bb, type: 3}
  - m_RefCount: 1
    m_Data: {fileID: 738226817, guid: b88a389fb7b73fd4784ef718202244bb, type: 3}
  - m_RefCount: 1
    m_Data: {fileID: 1382764903, guid: b88a389fb7b73fd4784ef718202244bb, type: 3}
  - m_RefCount: 1
    m_Data: {fileID: -101892910, guid: b88a389fb7b73fd4784ef718202244bb, type: 3}
  - m_RefCount: 1
    m_Data: {fileID: 1310007248, guid: b88a389fb7b73fd4784ef718202244bb, type: 3}
  - m_RefCount: 1
    m_Data: {fileID: 147827012, guid: b88a389fb7b73fd4784ef718202244bb, type: 3}
  - m_RefCount: 1
    m_Data: {fileID: -1694217312, guid: b88a389fb7b73fd4784ef718202244bb, type: 3}
  - m_RefCount: 1
    m_Data: {fileID: -1709037751, guid: b88a389fb7b73fd4784ef718202244bb, type: 3}
  - m_RefCount: 1
    m_Data: {fileID: -1528735250, guid: b88a389fb7b73fd4784ef718202244bb, type: 3}
  - m_RefCount: 1
    m_Data: {fileID: -1144646953, guid: b88a389fb7b73fd4784ef718202244bb, type: 3}
  - m_RefCount: 1
    m_Data: {fileID: 267412796, guid: b88a389fb7b73fd4784ef718202244bb, type: 3}
  - m_RefCount: 1
    m_Data: {fileID: -230533370, guid: b88a389fb7b73fd4784ef718202244bb, type: 3}
  - m_RefCount: 1
    m_Data: {fileID: 1575398613, guid: b88a389fb7b73fd4784ef718202244bb, type: 3}
  - m_RefCount: 1
    m_Data: {fileID: -1337049217, guid: b88a389fb7b73fd4784ef718202244bb, type: 3}
  - m_RefCount: 1
    m_Data: {fileID: 1015247731, guid: b88a389fb7b73fd4784ef718202244bb, type: 3}
  - m_RefCount: 1
    m_Data: {fileID: -1777429781, guid: b88a389fb7b73fd4784ef718202244bb, type: 3}
  - m_RefCount: 1
    m_Data: {fileID: -189155769, guid: b88a389fb7b73fd4784ef718202244bb, type: 3}
  - m_RefCount: 1
    m_Data: {fileID: 975198840, guid: b88a389fb7b73fd4784ef718202244bb, type: 3}
  - m_RefCount: 1
    m_Data: {fileID: 1154763452, guid: b88a389fb7b73fd4784ef718202244bb, type: 3}
  - m_RefCount: 1
    m_Data: {fileID: -1056088278, guid: b88a389fb7b73fd4784ef718202244bb, type: 3}
  - m_RefCount: 1
    m_Data: {fileID: 572040861, guid: b88a389fb7b73fd4784ef718202244bb, type: 3}
  - m_RefCount: 1
    m_Data: {fileID: -546406951, guid: b88a389fb7b73fd4784ef718202244bb, type: 3}
  - m_RefCount: 1
    m_Data: {fileID: 103599073, guid: b88a389fb7b73fd4784ef718202244bb, type: 3}
  - m_RefCount: 1
    m_Data: {fileID: 609764173, guid: b88a389fb7b73fd4784ef718202244bb, type: 3}
  - m_RefCount: 1
    m_Data: {fileID: 23687032, guid: b88a389fb7b73fd4784ef718202244bb, type: 3}
  - m_RefCount: 1
    m_Data: {fileID: 1047901946, guid: b88a389fb7b73fd4784ef718202244bb, type: 3}
  - m_RefCount: 1
    m_Data: {fileID: 334272841, guid: b88a389fb7b73fd4784ef718202244bb, type: 3}
  - m_RefCount: 1
    m_Data: {fileID: 1429518173, guid: b88a389fb7b73fd4784ef718202244bb, type: 3}
  - m_RefCount: 1
    m_Data: {fileID: -2032666830, guid: b88a389fb7b73fd4784ef718202244bb, type: 3}
  - m_RefCount: 1
    m_Data: {fileID: -403870399, guid: b88a389fb7b73fd4784ef718202244bb, type: 3}
  - m_RefCount: 1
    m_Data: {fileID: -524830708, guid: b88a389fb7b73fd4784ef718202244bb, type: 3}
  - m_RefCount: 1
    m_Data: {fileID: -539938865, guid: b88a389fb7b73fd4784ef718202244bb, type: 3}
  - m_RefCount: 1
    m_Data: {fileID: -1492871795, guid: b88a389fb7b73fd4784ef718202244bb, type: 3}
  - m_RefCount: 1
    m_Data: {fileID: 1473673428, guid: b88a389fb7b73fd4784ef718202244bb, type: 3}
  - m_RefCount: 1
    m_Data: {fileID: 1465347461, guid: b88a389fb7b73fd4784ef718202244bb, type: 3}
  - m_RefCount: 1
    m_Data: {fileID: 1569883641, guid: b88a389fb7b73fd4784ef718202244bb, type: 3}
  - m_RefCount: 1
    m_Data: {fileID: -1345305350, guid: b88a389fb7b73fd4784ef718202244bb, type: 3}
  - m_RefCount: 1
    m_Data: {fileID: -2030516125, guid: b88a389fb7b73fd4784ef718202244bb, type: 3}
  - m_RefCount: 1
    m_Data: {fileID: 616641465, guid: b88a389fb7b73fd4784ef718202244bb, type: 3}
  - m_RefCount: 1
    m_Data: {fileID: -1485874472, guid: b88a389fb7b73fd4784ef718202244bb, type: 3}
  - m_RefCount: 1
    m_Data: {fileID: -1131336973, guid: b88a389fb7b73fd4784ef718202244bb, type: 3}
  - m_RefCount: 1
    m_Data: {fileID: -790209217, guid: b88a389fb7b73fd4784ef718202244bb, type: 3}
  - m_RefCount: 1
    m_Data: {fileID: 329782841, guid: b88a389fb7b73fd4784ef718202244bb, type: 3}
  m_TileMatrixArray:
  - m_RefCount: 67
    m_Data:
      e00: 1
      e01: 0
      e02: 0
      e03: 0
      e10: 0
      e11: 1
      e12: 0
      e13: 0
      e20: 0
      e21: 0
      e22: 1
      e23: 0
      e30: 0
      e31: 0
      e32: 0
      e33: 1
  m_TileColorArray:
  - m_RefCount: 67
    m_Data: {r: 1, g: 1, b: 1, a: 1}
  m_TileObjectToInstantiateArray: []
  m_AnimationFrameRate: 1
  m_Color: {r: 1, g: 1, b: 1, a: 1}
  m_Origin: {x: -6, y: -8, z: 0}
  m_Size: {x: 8, y: 9, z: 1}
  m_TileAnchor: {x: 0.5, y: 0.5, z: 0}
  m_TileOrientation: 0
  m_TileOrientationMatrix:
    e00: 1
    e01: 0
    e02: 0
    e03: 0
    e10: 0
    e11: 1
    e12: 0
    e13: 0
    e20: 0
    e21: 0
    e22: 1
    e23: 0
    e30: 0
    e31: 0
    e32: 0
    e33: 1
--- !u!483693784 &666083125677764841
TilemapRenderer:
  m_ObjectHideFlags: 0
  m_CorrespondingSourceObject: {fileID: 0}
  m_PrefabInstance: {fileID: 0}
  m_PrefabAsset: {fileID: 0}
  m_GameObject: {fileID: 8922890435401942699}
  m_Enabled: 1
  m_CastShadows: 0
  m_ReceiveShadows: 0
  m_DynamicOccludee: 0
  m_StaticShadowCaster: 0
  m_MotionVectors: 1
  m_LightProbeUsage: 0
  m_ReflectionProbeUsage: 0
  m_RayTracingMode: 0
  m_RayTraceProcedural: 0
  m_RenderingLayerMask: 1
  m_RendererPriority: 0
  m_Materials:
  - {fileID: 10754, guid: 0000000000000000f000000000000000, type: 0}
  m_StaticBatchInfo:
    firstSubMesh: 0
    subMeshCount: 0
  m_StaticBatchRoot: {fileID: 0}
  m_ProbeAnchor: {fileID: 0}
  m_LightProbeVolumeOverride: {fileID: 0}
  m_ScaleInLightmap: 1
  m_ReceiveGI: 1
  m_PreserveUVs: 0
  m_IgnoreNormalsForChartDetection: 0
  m_ImportantGI: 0
  m_StitchLightmapSeams: 1
  m_SelectedEditorRenderState: 0
  m_MinimumChartSize: 4
  m_AutoUVMaxDistance: 0.5
  m_AutoUVMaxAngle: 89
  m_LightmapParameters: {fileID: 0}
  m_SortingLayerID: 0
  m_SortingLayer: 0
  m_SortingOrder: 0
  m_ChunkSize: {x: 32, y: 32, z: 32}
  m_ChunkCullingBounds: {x: 0, y: 0, z: 0}
  m_MaxChunkCount: 16
  m_MaxFrameAge: 16
  m_SortOrder: 0
  m_Mode: 0
  m_DetectChunkCullingBounds: 0
  m_MaskInteraction: 0
--- !u!114 &5514737723854974743
MonoBehaviour:
  m_ObjectHideFlags: 0
  m_CorrespondingSourceObject: {fileID: 0}
  m_PrefabInstance: {fileID: 0}
  m_PrefabAsset: {fileID: 0}
  m_GameObject: {fileID: 0}
  m_Enabled: 1
  m_EditorHideFlags: 0
  m_Script: {fileID: 12395, guid: 0000000000000000e000000000000000, type: 0}
  m_Name: Palette Settings
  m_EditorClassIdentifier: 
  cellSizing: 0
  m_TransparencySortMode: 0
  m_TransparencySortAxis: {x: 0, y: 0, z: 1}
